[
  {
    "orderNumber": 65536,
    "item": "T-Shirt",
    "price": 27,
    "orderedBy": "Jose"
  },
  {
    "orderNumber": 256,
    "item": "Coffee Mug",
    "price": 14,
    "orderedBy": "Nick"
  },
  {
    "orderNumber": 512,
    "item": "Computer",
    "price": 399,
    "orderedBy": "Josh"
  },
  {
    "orderNumber": 1024,
    "item": "Shoes",
    "price": 149,
    "orderedBy": "Stephen"
  },
  {
    "orderNumber": 2048,
    "item": "Bike",
    "price": 279,
    "orderedBy": "Jose"
  },
  {
    "orderNumber": 4096,
    "item": "Phone",
    "price": 1000,
    "orderedBy": "Nick"
  }
]